<?xml version="1.0" encoding="UTF-8" standalone="no"?>
<svg
   xmlns:dc="http://purl.org/dc/elements/1.1/"
   xmlns:cc="http://creativecommons.org/ns#"
   xmlns:rdf="http://www.w3.org/1999/02/22-rdf-syntax-ns#"
   xmlns:svg="http://www.w3.org/2000/svg"
   xmlns="http://www.w3.org/2000/svg"
   xmlns:sodipodi="http://sodipodi.sourceforge.net/DTD/sodipodi-0.dtd"
   xmlns:inkscape="http://www.inkscape.org/namespaces/inkscape"
   id="Слой_1"
   data-name="Слой 1"
   viewBox="0 0 24 24"
   version="1.1"
   sodipodi:docname="export_part.svg"
   inkscape:version="1.0.1 (c497b03c, 2020-09-10)">
  <sodipodi:namedview
     pagecolor="#ffffff"
     bordercolor="#666666"
     borderopacity="1"
     objecttolerance="10"
     gridtolerance="10"
     guidetolerance="10"
     inkscape:pageopacity="0"
     inkscape:pageshadow="2"
     inkscape:window-width="1280"
     inkscape:window-height="715"
     id="namedview30"
     showgrid="true"
     inkscape:zoom="19.767234"
     inkscape:cx="13.32902"
     inkscape:cy="12.307225"
     inkscape:window-x="59"
     inkscape:window-y="23"
     inkscape:window-maximized="0"
     inkscape:document-rotation="0"
     inkscape:current-layer="Слой_1">
    <inkscape:grid
       type="xygrid"
       id="grid_kicad"
       spacingx="0.5"
       spacingy="0.5"
       color="#9999ff"
       opacity="0.13"
       empspacing="2" />
  </sodipodi:namedview>
  <metadata
     id="metadata43">
    <rdf:RDF>
      <cc:Work
         rdf:about="">
        <cc:license
           rdf:resource="http://creativecommons.org/licenses/by-sa/4.0/" />
        <dc:format>image/svg+xml</dc:format>
        <dc:type
           rdf:resource="http://purl.org/dc/dcmitype/StillImage" />
        <dc:title>add_arc</dc:title>
      </cc:Work>
      <cc:License
         rdf:about="http://creativecommons.org/licenses/by-sa/4.0/">
        <cc:permits
           rdf:resource="http://creativecommons.org/ns#Reproduction" />
        <cc:permits
           rdf:resource="http://creativecommons.org/ns#Distribution" />
        <cc:requires
           rdf:resource="http://creativecommons.org/ns#Notice" />
        <cc:requires
           rdf:resource="http://creativecommons.org/ns#Attribution" />
        <cc:permits
           rdf:resource="http://creativecommons.org/ns#DerivativeWorks" />
        <cc:requires
           rdf:resource="http://creativecommons.org/ns#ShareAlike" />
      </cc:License>
    </rdf:RDF>
  </metadata>
  <defs
     id="defs117075">
    <style
       id="style117073">.cls-1{fill:#b9b9b9;}.cls-2{fill:#545454;}.cls-3{fill:#bf2641;}.cls-4{fill:none;stroke:#f5f5f5;stroke-linecap:round;stroke-linejoin:round;stroke-width:2px;}</style>
  </defs>
  <title
     id="title117077">export_part</title>
  <g
     id="g893"
     transform="translate(1.614474,5.118756)">
    <polygon
       class="cls-1"
       points="5,2 5,24 21.654,13 "
       id="polygon27928"
       transform="matrix(0.99890119,0,0,1,-2.6122763,-6.1182919)"
       style="fill:#f3f3f3;fill-opacity:1;stroke:#545454;stroke-width:2.0011px;stroke-linecap:round;stroke-linejoin:round" />
    <line
       class="cls-1"
       x1="19.018129"
       y1="6.8817091"
       x2="21.385527"
       y2="6.8817091"
       id="line27930"
       style="fill:none;stroke:#545454;stroke-width:2px;stroke-linecap:round;stroke-linejoin:round" />
    <line
       class="cls-1"
       x1="2.3043151"
       y1="0.88170809"
       x2="-0.614474"
       y2="0.88170809"
       id="line27932"
       style="fill:none;stroke:#545454;stroke-width:2px;stroke-linecap:round;stroke-linejoin:round" />
    <line
       class="cls-1"
       x1="2.2867343"
       y1="12.881707"
       x2="-0.614474"
       y2="12.881707"
       id="line27934"
       style="fill:none;stroke:#545454;stroke-width:2px;stroke-linecap:round;stroke-linejoin:round" />
    <path
       id="line27936"
       style="fill:none;stroke:#545454;stroke-width:1.5;stroke-linecap:square;stroke-linejoin:round;stroke-miterlimit:4;stroke-dasharray:none"
       d="M 5.3789332,3.3817081 H 8.3756368"
       class="cls-1"
       sodipodi:nodetypes="cc" />
    <path
       style="fill:none;stroke:#545454;stroke-width:1.5;stroke-linecap:butt;stroke-linejoin:miter;stroke-miterlimit:4;stroke-dasharray:none;stroke-opacity:1"
       d="M 6.877285,6.8817082 V 11.881708"
       id="path17250"
       sodipodi:nodetypes="cc" />
    <path
       style="fill:none;stroke:#545454;stroke-width:1.5;stroke-linecap:butt;stroke-linejoin:miter;stroke-miterlimit:4;stroke-dasharray:none;stroke-opacity:1"
       d="m 4.3807133,9.3459452 4.9938248,0.03576"
       id="path17252"
       sodipodi:nodetypes="cc" />
  </g>
  <ellipse
     class="cls-3"
     cx="16.9967"
     cy="17.012199"
     rx="7.0064998"
     ry="7"
     id="ellipse117087" />
  <line
     class="cls-4"
     x1="17.100599"
     y1="13.6434"
     x2="17.100599"
     y2="20.6434"
     id="line117089" />
  <polyline
     class="cls-4"
     points="15.345 17.176 18.101 14.424 20.856 17.176"
     id="polyline117091"
     transform="translate(-1,-1)" />
</svg>
